…
## 637066 words dictionary was built.

# 명사 추출 데이터 리스트 생성
noun = extractNoun(comments_edited$symbol_removed)
noun_list = unlist(noun)

noun_list_count = table(noun_list)

result = noun_list_count %>% 
  as_tibble() %>% 
  arrange(desc(n)) 
result

## # A tibble: 10,878 x 2
##    noun_list     n
##    <chr>     <int>
##  1 것         2649
##  2 요리       1251
##  3 이유       1214
##  4 님         1183
##  5 한         1145
##  6 나         1113
##  7 편          927
##  8 데          871
##  9 진짜        791
## 10 스토        724
## # ... with 10,868 more rows
…
word.freq = result_edit %>% 
  rename(word = noun_list,
         freq = n)

word.freq[["word"]][word.freq[["word"]] == "스토"] = "편스토랑"
word.freq[["word"]][word.freq[["word"]] == "스토랑"] = "편스토랑"
word.freq[["word"]][word.freq[["word"]] == "이유"] = "이유리"

word.freq

## # A tibble: 79 x 2
##    word      freq
##    <chr>    <int>
##  1 요리      1251
##  2 이유리    1214
##  3 진짜       791
##  4 편스토랑   724
##  5 이정현     593
##  6 오윤아     578
##  7 사람       556
##  8 장민호     538
##  9 방송       535
## 10 음식       441
## # ... with 69 more rows
…
dic = read_csv("knu_sentiment_lexicon.csv")

dic %>% 
  filter(polarity == 2) %>% 
  arrange(word)

## # A tibble: 2,602 x 2
##    word              polarity
##    <chr>                <dbl>
##  1 가능성이 늘어나다        2
##  2 가능성이 있다고          2
##  3 가능하다                 2
##  4 가볍고 상쾌하다          2
##  5 가볍고 상쾌한            2
##  6 가볍고 시원하게          2
##  7 가볍고 편안하게          2
##  8 가볍고 환하게            2
##  9 가운데에서 뛰어남        2
## 10 가장 거룩한              2
## # ... with 2,592 more rows
…
comments_yuri = comments_yuri %>% 
  left_join(dic, by = "word") %>% 
  mutate(polarity = 
           ifelse(is.na(polarity), 0, polarity))

score_df = comments_yuri %>% 
  group_by(sentence) %>% 
  summarise(score = sum(polarity))

score_df = score_df %>% 
  arrange(desc(score))

score_df

## # A tibble: 1,237 x 2
##    sentence                                                                score
##    <chr>                                                                   <dbl>
##  1 이유리 편들 이해불가 이정현 오윤아 이유리 이영자 이경규 나온 연예인 출~    10
##  2 이유리 요리 창의성도 좋고 실력도 좋고 성격도 서글서글순둥순둥 좋아 보~      8
##  3 이유리 링 적당하게 리액션도 좋고 조율도 잘하고 웃음소리도 귀엽고 예쁘다     7
##  4 이유리 예쁘다 귀여운데 예뻐 그런데 또 잘해 비단이랑도 케미 좋다             7
##  5 그래서 오늘 한 대감 나오고  끝임  아  갈수록 재미없어요 오늘도 오윤아 ~     6
##  6 이유리 님 팬들이 이정현 님 보고 뭐라 했는지는 모르겠지만 지금 보니까 ~      6
##  7 이유리 최고                                                                 6
##  8 허치유 케미좋다이유리가 주축인데 실력도 좋고 성격도 서글서글 좋아 보여~     6
##  9 근데 솔직히 저기서 제일 고급 지게 음식 만드는 분은 이정현 씨임 이유리 ~     5
## 10 어제 저도 허경환 님 이유리 님 황치열 님 세분 케미가 너무 좋아서 너무 ~      5
## # ... with 1,227 more rows
…
